{
	"pools": [
		{
			"name": "wolf_tail",
			"rolls": 1,
            "bonus_rolls":1,
			"entries": [
				{
					"type": "item",
					"name": "thezoneproject:wolf_tail",
					"weight": 1
				},
				{
					"type": "empty",
					"weight": 4
				}
			]
		},
		{
			"name": "skull",
			"rolls": 1,
			"bonus_rolls": 1,
			"entries": [
				{
					"type": "item",
					"name": "thezoneproject:skull_blind_wolf",
					"weight": 1
				},
				{
					"type": "empty",
					"weight": 99
				}
			]
		}
	]
}